<?xml version="1.0" encoding="UTF-8" standalone="no"?>
<!-- Created with Inkscape (http://www.inkscape.org/) -->

<svg
   width="16.771408mm"
   height="16.77194mm"
   viewBox="0 0 16.771408 16.77194"
   version="1.1"
   id="svg1"
   inkscape:version="1.3 (0e150ed6c4, 2023-07-21)"
   sodipodi:docname="thealt_signet_inv.svg"
   xmlns:inkscape="http://www.inkscape.org/namespaces/inkscape"
   xmlns:sodipodi="http://sodipodi.sourceforge.net/DTD/sodipodi-0.dtd"
   xmlns="http://www.w3.org/2000/svg"
   xmlns:svg="http://www.w3.org/2000/svg">
  <sodipodi:namedview
     id="namedview1"
     pagecolor="#ffffff"
     bordercolor="#000000"
     borderopacity="0.25"
     inkscape:showpageshadow="2"
     inkscape:pageopacity="0.0"
     inkscape:pagecheckerboard="0"
     inkscape:deskcolor="#d1d1d1"
     inkscape:document-units="mm"
     inkscape:zoom="0.67972082"
     inkscape:cx="195.66857"
     inkscape:cy="197.87536"
     inkscape:window-width="1920"
     inkscape:window-height="1011"
     inkscape:window-x="0"
     inkscape:window-y="0"
     inkscape:window-maximized="1"
     inkscape:current-layer="layer1" />
  <defs
     id="defs1" />
  <g
     inkscape:label="Layer 1"
     inkscape:groupmode="layer"
     id="layer1"
     transform="translate(-53.445833,-96.04375)">
    <path
       fill="#ffffff"
       d="m 56.502035,96.044015 c -1.693069,0 -3.056202,1.363133 -3.056202,3.056202 v 10.659533 c 0,1.6928 1.362868,3.05594 3.056202,3.05594 h 10.659268 c 1.692804,0 3.055938,-1.36287 3.055938,-3.05594 V 99.099952 c 0,-1.692804 -1.362869,-3.056202 -3.055938,-3.056202 z m 0.312737,1.011502 h 9.61099 c 1.540139,0 2.779977,1.239837 2.779977,2.779977 v 9.610986 c 0,1.53988 -1.239838,2.77998 -2.779977,2.77998 h -9.61099 c -1.540404,0 -2.779977,-1.2401 -2.779977,-2.77998 v -9.610722 c 0,-1.540404 1.239573,-2.780241 2.779977,-2.780241 z"
       id="path19"
       style="fill:#f9f9f9;fill-opacity:1;stroke-width:0.264583" />
    <g
       id="g22"
       style="fill:#f9f9f9;fill-opacity:1"
       transform="matrix(0.26458333,0,0,0.26458333,36.563564,79.272342)">
      <path
         fill="#ffffff"
         d="m 85.647,96.678 h -3.663 l 8.174,-19.256 h 3.837 l 8.35,19.256 h -3.838 l -2.194,-5.251 h -6.396 l 1.226,-3.097 h 3.878 l -3.03,-7.231 z"
         id="path20"
         style="fill:#f9f9f9;fill-opacity:1" />
      <path
         fill="#ffffff"
         d="m 107.933,77.422 v 19.256 h -3.568 V 77.422 Z"
         id="path21"
         style="fill:#f9f9f9;fill-opacity:1" />
      <path
         fill="#ffffff"
         d="m 111.097,80.251 h 2.639 l 0.539,2.289 h 3.555 v 2.828 h -3.164 v 6.504 c 0,1.318 0.57,1.979 1.71,1.979 h 1.454 v 2.828 h -3.178 c -2.37,0 -3.555,-1.27 -3.555,-3.811 z"
         id="path22"
         style="fill:#f9f9f9;fill-opacity:1" />
    </g>
  </g>
</svg>
